<?xml version="1.0" encoding="utf-8"?>
<!-- Generator: Adobe Illustrator 23.0.0, SVG Export Plug-In . SVG Version: 6.00 Build 0)  -->
<svg version="1.1" id="Capa_1" xmlns="http://www.w3.org/2000/svg" xmlns:xlink="http://www.w3.org/1999/xlink" x="0px" y="0px"
	 width="46px" height="46px" viewBox="0 0 46 46" style="enable-background:new 0 0 46 46;" xml:space="preserve">
<style type="text/css">
	.st0{fill:#262DB2;}
	.st1{fill:#C91433;}
</style>
<g>
	<path class="st0" d="M42.9,17.8L42.9,17.8v-0.2c1.9-1.6,3.1-4.8,3.1-8.3C46,4.1,43.5,0,40.3,0H5.7C2.5,0,0,4.1,0,9.4
		c0,3.6,1.2,6.7,3.1,8.3l0.1,0.1l-0.1,0.1C1.2,19.4,0,22.6,0,26.1c0,2,0.4,3.9,1.1,5.5c0.7,1.6,1.6,2.7,2.7,3.4L4,35.1v-2.2
		l-0.3-0.4c-1.2-1.4-1.9-3.8-1.9-6.4c0-1.9,0.4-3.8,1.2-5.2c0.8-1.4,1.7-2.2,2.8-2.2h1.1l2.5,0H31l3,0h2.9l-0.1,0.2
		c-1.3,1.8-2.1,4.4-2.1,7.3c0,2.9,0.8,5.5,2.1,7.3l0.1,0.2h-6.4v1.9h9.8c3.2,0,5.7-4.1,5.7-9.4C46,22.6,44.8,19.4,42.9,17.8z
		 M40.3,1.9c1,0,2,0.8,2.8,2.2c0.7,1.4,1.2,3.3,1.2,5.2s-0.4,3.8-1.2,5.2c-0.8,1.4-1.7,2.2-2.8,2.2s-2-0.8-2.8-2.2
		c-0.7-1.4-1.2-3.3-1.2-5.2s0.4-3.8,1.2-5.2C38.3,2.7,39.3,1.9,40.3,1.9z M5.7,16.8c-0.5,0-1-0.2-1.5-0.6c-0.5-0.4-0.9-0.9-1.3-1.7
		c-0.7-1.4-1.2-3.3-1.2-5.2c0-1.9,0.4-3.8,1.2-5.2c0.8-1.4,1.7-2.2,2.8-2.2h31.2l-0.1,0.2c-1.4,1.8-2.1,4.4-2.1,7.3
		c0,2.9,0.8,5.5,2.1,7.3l0.1,0.2H5.7z M44,29c-0.2,0.9-0.5,1.7-0.9,2.4c-0.8,1.4-1.7,2.2-2.8,2.2s-2-0.8-2.8-2.2
		c-0.7-1.4-1.2-3.3-1.2-5.2s0.4-3.8,1.2-5.2c0.8-1.4,1.7-2.2,2.8-2.2c1,0,2,0.8,2.8,2.2c0.7,1.4,1.2,3.3,1.2,5.2
		C44.3,27.1,44.2,28.1,44,29z"/>
	<path class="st0" d="M42.1,9.3c0,1.8-0.8,3.1-1.8,3.1c-1.1,0-1.8-1.3-1.8-3.1c0-1.8,0.8-3.1,1.8-3.1C41.4,6.3,42.1,7.6,42.1,9.3z"
		/>
	<ellipse class="st0" cx="40.3" cy="26.1" rx="1.8" ry="3.1"/>
</g>
<path class="st1" d="M27.5,37.9l-4.7,5.2v-3.2c0-1.3,0.9-2.3,2.1-2.3h2.9L27.5,37.9z M3.9,35.1V42c0,2.2,1.6,4,3.7,4H22
	c0.2,0,0.4-0.1,0.6-0.3l7.7-8.4c0.2-0.2,0.2-0.4,0.2-0.6v-1.3v-1.8v-1.2c0-10.1,2.5-13.1,3.2-13.8l0.1,0l-2.1,0L31.5,19
	c-1.2,1.9-2.6,5.9-2.6,13.5v3.4h-4c-2,0-3.7,1.8-3.7,4v4.4H7.6c-1.2,0-2.1-1-2.1-2.3v-9.5c0-8.5,2.6-12.7,3.4-13.8l0.1-0.1l-1.9,0
	L6.8,19c-0.8,1.4-1.4,3.1-1.9,4.9c-0.7,2.6-1,5.5-1,8.6v0.3V35.1z"/>
</svg>
