<?xml version="1.0" encoding="utf-8"?>
<!-- Generator: Adobe Illustrator 23.0.0, SVG Export Plug-In . SVG Version: 6.00 Build 0)  -->
<svg version="1.1" id="Capa_1" xmlns="http://www.w3.org/2000/svg" xmlns:xlink="http://www.w3.org/1999/xlink" x="0px" y="0px"
	 width="46px" height="46px" viewBox="0 0 46 46" style="enable-background:new 0 0 46 46;" xml:space="preserve">
<style type="text/css">
	.st0{fill:#262DB2;}
	.st1{fill:#C91433;}
</style>
<g>
	<g>
		<g>
			<g>
				<path class="st0" d="M43.6,38.1H43V0.9c0,0,0,0,0-0.1c0,0,0-0.1,0-0.1c0,0,0,0,0,0c0-0.1,0-0.1-0.1-0.2c0,0,0,0,0,0
					c0,0,0-0.1-0.1-0.1c0,0,0,0,0,0c0,0-0.1-0.1-0.1-0.1l0,0c0,0-0.1-0.1-0.1-0.1c0,0-0.1,0-0.1-0.1c-0.1,0-0.1,0-0.2,0h0
					c0,0-0.1,0-0.1,0c0,0,0,0-0.1,0c0,0-0.1,0-0.1,0c0,0,0,0,0,0c-0.1,0-0.1,0-0.2,0.1c0,0,0,0-0.1,0l-1.9,1.2l-1.9-1.2
					c-0.3-0.2-0.7-0.2-1,0l-1.9,1.2L33,0.1c-0.3-0.2-0.7-0.2-1,0l-1.9,1.2l-1.9-1.2c-0.3-0.2-0.7-0.2-1,0l-1.9,1.2l-1.9-1.2
					c-0.3-0.2-0.7-0.2-1,0l-1.9,1.2l-1.9-1.2c-0.3-0.2-0.7-0.2-1,0l-1.9,1.2L14,0.1c-0.3-0.2-0.7-0.2-1,0l-1.9,1.2L9.2,0.1
					C8.9,0,8.5,0,8.2,0.1L6.3,1.4L4.5,0.1l0,0c0,0,0,0-0.1,0L4.2,0.1c0,0-0.1,0-0.2,0C4,0,4,0,4,0c0,0-0.1,0-0.1,0c0,0-0.1,0-0.1,0
					c0,0,0,0,0,0l0,0c0,0-0.1,0-0.1,0.1c0,0-0.1,0-0.1,0.1S3.3,0.3,3.3,0.4l0,0c0,0,0,0,0,0c0,0,0,0.1-0.1,0.1L3.1,0.6
					c0,0.1,0,0.1,0,0.2c0,0,0,0,0,0.1v37.2H2.4c-1.3,0-2.4,1.1-2.4,2.4v3C0,44.9,1.1,46,2.4,46h41.1c1.3,0,2.4-1.1,2.4-2.4v-3
					C46,39.2,44.9,38.1,43.6,38.1z M3,44.2H2.4c-0.3,0-0.6-0.3-0.6-0.6v-3c0-0.3,0.3-0.6,0.6-0.6H3V44.2z M41.1,44.2H4.9V2.6l1,0.6
					c0.3,0.2,0.7,0.2,1,0L8.7,2l1.9,1.2c0.3,0.2,0.7,0.2,1,0L13.5,2l1.9,1.2c0.3,0.2,0.7,0.2,1,0L18.2,2l1.9,1.2
					c0.3,0.2,0.7,0.2,1,0L23,2l1.9,1.2c0.3,0.2,0.7,0.2,1,0L27.7,2l1.9,1.2c0.3,0.2,0.7,0.2,1,0L32.5,2l1.9,1.2c0.3,0.2,0.7,0.2,1,0
					L37.3,2l1.9,1.2c0.3,0.2,0.7,0.2,1,0l1-0.6L41.1,44.2L41.1,44.2z M44.2,43.6c0,0.3-0.3,0.6-0.6,0.6H43v-4.3h0.6
					c0.3,0,0.6,0.3,0.6,0.6V43.6z"/>
			</g>
			<path class="st1" d="M18.4,7h9.1c0.4,0,0.8-0.3,0.8-0.8S28,5.5,27.6,5.5h-9.1c-0.4,0-0.8,0.3-0.8,0.8C17.7,6.7,18,7,18.4,7z"/>
			<path class="st1" d="M15.4,10.1h15.2c0.4,0,0.8-0.3,0.8-0.8c0-0.4-0.3-0.8-0.8-0.8H15.4c-0.4,0-0.8,0.3-0.8,0.8
				C14.6,9.7,15,10.1,15.4,10.1z"/>
			<path class="st1" d="M37.5,17.7H22.2c-0.4,0-0.8,0.3-0.8,0.8s0.3,0.8,0.8,0.8h15.2c0.4,0,0.8-0.3,0.8-0.8S37.9,17.7,37.5,17.7z"
				/>
			<path class="st1" d="M37.5,20.7H22.2c-0.4,0-0.8,0.3-0.8,0.8s0.3,0.8,0.8,0.8h15.2c0.4,0,0.8-0.3,0.8-0.8S37.9,20.7,37.5,20.7z"
				/>
			<path class="st1" d="M37.5,23.8H22.2c-0.4,0-0.8,0.3-0.8,0.8c0,0.4,0.3,0.8,0.8,0.8h15.2c0.4,0,0.8-0.3,0.8-0.8
				C38.2,24.1,37.9,23.8,37.5,23.8z"/>
			<rect x="5.5" y="41.3" class="st1" width="1.5" height="1.5"/>
			<rect x="8.5" y="41.3" class="st1" width="1.5" height="1.5"/>
			<rect x="11.6" y="41.3" class="st1" width="1.5" height="1.5"/>
			<rect x="14.6" y="41.3" class="st1" width="1.5" height="1.5"/>
			<rect x="17.7" y="41.3" class="st1" width="1.5" height="1.5"/>
			<rect x="20.7" y="41.3" class="st1" width="1.5" height="1.5"/>
			<rect x="23.8" y="41.3" class="st1" width="1.5" height="1.5"/>
			<rect x="26.8" y="41.3" class="st1" width="1.5" height="1.5"/>
			<rect x="29.9" y="41.3" class="st1" width="1.5" height="1.5"/>
			<rect x="32.9" y="41.3" class="st1" width="1.5" height="1.5"/>
			<rect x="35.9" y="41.3" class="st1" width="1.5" height="1.5"/>
			<rect x="39" y="41.3" class="st1" width="1.5" height="1.5"/>
			<path class="st1" d="M31.4,35.9h-9.1c-0.4,0-0.8,0.3-0.8,0.8s0.3,0.8,0.8,0.8h9.1c0.4,0,0.8-0.3,0.8-0.8
				C32.1,36.3,31.8,35.9,31.4,35.9z"/>
			<path class="st1" d="M37.5,32.9H22.2c-0.4,0-0.8,0.3-0.8,0.8s0.3,0.8,0.8,0.8h15.2c0.4,0,0.8-0.3,0.8-0.8S37.9,32.9,37.5,32.9z"
				/>
		</g>
	</g>
</g>
<g>
	<path class="st1" d="M13.6,27.3h-1.4c-0.2,0-0.4,0.1-0.4,0.3v1c0,0.2-0.2,0.3-0.4,0.3h-1.3c-0.2,0-0.4-0.1-0.4-0.3v-1
		c0-0.2-0.2-0.3-0.4-0.3H8.8c-0.2,0-0.4-0.1-0.4-0.3v-1.4c0-0.2,0.2-0.3,0.4-0.3h0.6c0.2,0,0.4-0.1,0.4-0.3l0,0
		c0-0.2-0.2-0.3-0.4-0.3H8.8c-0.2,0-0.4-0.1-0.4-0.3V23c0-0.2,0.2-0.3,0.4-0.3h0.6c0.2,0,0.4-0.1,0.4-0.3v-5.2
		c0-0.2,0.2-0.3,0.4-0.3h3.5c0.7,0,1.4,0.2,1.9,0.5c0.6,0.3,1,0.8,1.3,1.4c0.3,0.6,0.5,1.3,0.5,2.1c0,1.2-0.3,2.1-1,2.8
		c-0.7,0.7-1.6,1-2.7,1h-1.4c-0.2,0-0.4,0.1-0.4,0.3l0,0c0,0.2,0.2,0.3,0.4,0.3h1.4c0.2,0,0.4,0.1,0.4,0.3V27
		C14,27.2,13.8,27.3,13.6,27.3z M11.9,22.7h1.8c1.1,0,1.7-0.6,1.7-1.8c0-0.6-0.1-1-0.4-1.4c-0.3-0.4-0.7-0.5-1.2-0.5h-1.5
		c-0.2,0-0.4,0.1-0.4,0.3L11.9,22.7L11.9,22.7z"/>
</g>
</svg>
