<?xml version="1.0" encoding="utf-8"?>
<!-- Generator: Adobe Illustrator 23.0.0, SVG Export Plug-In . SVG Version: 6.00 Build 0)  -->
<svg version="1.1" id="Capa_1" xmlns="http://www.w3.org/2000/svg" xmlns:xlink="http://www.w3.org/1999/xlink" x="0px" y="0px"
	 width="46px" height="46px" viewBox="0 0 46 46" style="enable-background:new 0 0 46 46;" xml:space="preserve">
<style type="text/css">
	.st0{fill:#262DB2;}
	.st1{fill:#C91433;}
</style>
<g>
	<g>
		<g>
			<g>
				<path class="st0" d="M23,46c-3.1,0-6.2-0.6-9.1-1.9c-0.2-0.1-0.4-0.2-0.4-0.4c-0.1-0.2-0.1-0.4,0-0.6c0.1-0.3,0.4-0.5,0.7-0.5
					c0.1,0,0.2,0,0.3,0.1c2.7,1.2,5.6,1.8,8.5,1.8l0,0c5.7,0,11-2.2,15.1-6.3c7.3-7.3,8.3-18.7,2.5-27.2l-0.1-0.1L39,12.5
					c-0.2,0.2-0.4,0.2-0.6,0.2c-0.1,0-0.2,0-0.3-0.1c-0.3-0.1-0.5-0.4-0.5-0.7V7.4c0-0.5,0.4-0.8,0.8-0.8h4.5c0.3,0,0.6,0.2,0.7,0.5
					c0.1,0.3,0.1,0.6-0.2,0.9l-1.7,1.7l0,0.1c3,4.3,4.5,9.6,4.1,14.8c-0.4,5.5-2.8,10.8-6.7,14.7c-3.3,3.3-7.5,5.5-12.1,6.4
					C25.8,45.9,24.4,46,23,46z M39.2,9.9l1.7-1.7h-1.7V9.9z"/>
			</g>
		</g>
	</g>
	<g>
		<g>
			<g>
				<path class="st1" d="M11.5,42.8c-0.1,0-0.3,0-0.4-0.1l0,0c-0.2-0.1-0.3-0.3-0.4-0.5c-0.1-0.2,0-0.4,0.1-0.6
					c0.1-0.2,0.4-0.4,0.7-0.4c0.2,0,0.3,0,0.4,0.1l0,0c0.4,0.2,0.5,0.7,0.3,1.1C12,42.6,11.8,42.8,11.5,42.8z"/>
			</g>
		</g>
	</g>
	<g>
		<g>
			<g>
				<path class="st1" d="M34.7,5c-0.1,0-0.3,0-0.4-0.1l0,0c-0.2-0.1-0.3-0.3-0.4-0.5c-0.1-0.2,0-0.4,0.1-0.6
					c0.2-0.2,0.4-0.4,0.7-0.4c0.2,0,0.3,0,0.4,0.1l0,0c0.2,0.1,0.3,0.3,0.4,0.5c0.1,0.2,0,0.4-0.1,0.6C35.2,4.8,34.9,5,34.7,5z"/>
			</g>
		</g>
	</g>
	<g>
		<g>
			<g>
				<path class="st0" d="M3.1,39.4c-0.3,0-0.6-0.2-0.7-0.5c-0.1-0.3-0.1-0.6,0.2-0.9l1.7-1.7l0-0.1c-3-4.3-4.5-9.6-4.1-14.8
					c0.4-5.5,2.8-10.8,6.7-14.7c3.3-3.3,7.5-5.5,12.1-6.3C20.2,0.1,21.6,0,23,0c3.1,0,6.2,0.6,9,1.9c0.4,0.2,0.6,0.7,0.4,1.1
					c-0.1,0.3-0.4,0.5-0.7,0.5l0,0c-0.1,0-0.2,0-0.3-0.1c-2.7-1.2-5.6-1.7-8.5-1.7c-5.7,0-11,2.2-15.1,6.3
					c-7.3,7.3-8.3,18.7-2.5,27.2l0.1,0.1L7,33.5c0.2-0.2,0.4-0.2,0.6-0.2c0.1,0,0.2,0,0.3,0.1c0.3,0.1,0.5,0.4,0.5,0.7v4.5
					c0,0.5-0.4,0.8-0.8,0.8L3.1,39.4L3.1,39.4z M5.1,37.8h1.7v-1.7L5.1,37.8z"/>
			</g>
		</g>
	</g>
</g>
<g>
	<g>
		<path class="st1" d="M19.2,31.1v-1.2c0-0.3-0.2-0.6-0.5-0.6h-1.1c-0.3,0-0.5-0.3-0.5-0.6v-1.6c0-0.3,0.2-0.6,0.5-0.6h1.1
			c0.3,0,0.5-0.3,0.5-0.6l0,0c0-0.3-0.2-0.6-0.5-0.6h-1.1c-0.3,0-0.5-0.3-0.5-0.6v-1.6c0-0.3,0.2-0.6,0.5-0.6h1.1
			c0.3,0,0.5-0.3,0.5-0.6v-7.3c0-0.3,0.2-0.6,0.5-0.6h5.1c1.1,0,2,0.2,2.8,0.7c0.8,0.5,1.4,1.1,1.9,2c0.4,0.8,0.7,1.9,0.7,3
			c0,1.7-0.5,3-1.4,4c-0.9,1-2.3,1.5-4,1.5h-2.2c-0.3,0-0.5,0.3-0.5,0.6l0,0c0,0.3,0.2,0.6,0.5,0.6h2.2c0.3,0,0.5,0.3,0.5,0.6v1.6
			c0,0.3-0.2,0.6-0.5,0.6h-2.2c-0.3,0-0.5,0.3-0.5,0.6v1.2c0,0.3-0.2,0.6-0.5,0.6h-1.9C19.4,31.7,19.2,31.4,19.2,31.1z M22,22.2
			c0,0.3,0.2,0.6,0.5,0.6h2.2c1.7,0,2.6-0.9,2.6-2.8c0-0.9-0.2-1.6-0.7-2.1c-0.4-0.5-1-0.8-1.8-0.8h-2.3c-0.3,0-0.5,0.3-0.5,0.6
			V22.2z"/>
	</g>
</g>
</svg>
