<?xml version="1.0" encoding="utf-8"?>
<!-- Generator: Adobe Illustrator 23.0.0, SVG Export Plug-In . SVG Version: 6.00 Build 0)  -->
<svg version="1.1" id="Capa_1" xmlns="http://www.w3.org/2000/svg" xmlns:xlink="http://www.w3.org/1999/xlink" x="0px" y="0px"
	 width="16px" height="16px" viewBox="0 0 16 16" style="enable-background:new 0 0 16 16;" xml:space="preserve">
<style type="text/css">
	.st0{fill:#2EA73F;}
</style>
<path class="st0" d="M8,0C3.6,0,0,3.6,0,8s3.6,8,8,8s8-3.6,8-8S12.4,0,8,0z M12.3,6.2L7,11.4c-0.1,0.1-0.2,0.1-0.3,0.1
	c-0.1,0-0.2,0-0.3-0.1L3.7,8.7c-0.2-0.2-0.2-0.4,0-0.5L4.8,7C4.9,7,5,6.9,5.1,6.9c0.1,0,0.2,0,0.3,0.1l1.4,1.4l3.9-3.9
	c0.2-0.2,0.4-0.2,0.5,0l1.1,1.1c0.1,0.1,0.1,0.2,0.1,0.3C12.4,6,12.4,6.1,12.3,6.2z"/>
</svg>
