<?xml version="1.0" encoding="utf-8"?>
<!-- Generator: Adobe Illustrator 23.0.0, SVG Export Plug-In . SVG Version: 6.00 Build 0)  -->
<svg version="1.1" id="Capa_1" xmlns="http://www.w3.org/2000/svg" xmlns:xlink="http://www.w3.org/1999/xlink" x="0px" y="0px"
	 width="170px" height="127px" viewBox="0 0 170 127" style="enable-background:new 0 0 170 127;" xml:space="preserve">
<style type="text/css">
	.st0{opacity:0.3;}
	.st1{fill:#C3DBF8;}
</style>
<g class="st0">
	<path class="st1" d="M0,63.5C0,98.6,28.5,127,63.8,127c14.3,0,27.6-4.7,38.2-12.7l68-50.8l-68-50.8C91.3,4.7,78.1,0,63.8,0
		C28.5,0,0,28.4,0,63.5z M106.2,63.5c0,23.4-19,42.3-42.5,42.3c-23.5,0-42.5-19-42.5-42.3c0-23.4,19-42.3,42.5-42.3
		C87.2,21.2,106.2,40.1,106.2,63.5z"/>
</g>
</svg>
