<?xml version="1.0" encoding="utf-8"?>
<!-- Generator: Adobe Illustrator 23.0.0, SVG Export Plug-In . SVG Version: 6.00 Build 0)  -->
<svg version="1.1" id="Capa_1" xmlns="http://www.w3.org/2000/svg" xmlns:xlink="http://www.w3.org/1999/xlink" x="0px" y="0px"
	 width="100px" height="100px" viewBox="0 0 100 100" style="enable-background:new 0 0 100 100;" xml:space="preserve">
<style type="text/css">
	.st0{fill:#C91433;}
</style>
<g>
	<path class="st0" d="M76,41.9c0,13.1-26,30.6-26,30.6S24,55.7,24,41.9c0-9.9,6.4-14.4,14.4-14.4c3.7,0,7,1.4,9.6,3.7l-6.6,9.6
		c-0.2,0.2-0.2,0.5-0.2,0.8c0.1,0.3,0.2,0.5,0.5,0.7l9.9,6.3l-4.5,5.5c-0.2,0.3-0.3,0.6-0.2,1l2.5,8.8c0.1,0.5,0.6,0.8,1,0.8
		c0.1,0,0.2,0,0.2,0c0.6-0.1,0.9-0.7,0.8-1.3l-1.5-8l6.5-6.5c0.2-0.2,0.3-0.5,0.3-0.8c0-0.3-0.2-0.6-0.4-0.8l-8.5-6.6l9.3-11.1
		c0.2-0.2,0.3-0.5,0.2-0.8c0-0.2-0.1-0.3-0.1-0.4c1.4-0.5,3-0.8,4.6-0.8C69.6,27.5,76,34,76,41.9z"/>
</g>
</svg>
